src/Py02_Principal/build/tb_top.vcd
$date
	Sat May 09 11:21:21 2026
$end
$version
	Icarus Verilog
$end
$timescale
	1ps
$end
$scope module tb_top $end
$var wire 7 ! seg [6:0] $end
$var wire 4 " keypad_cols [3:0] $end
$var wire 4 # dig [3:0] $end
$var reg 1 $ clk27 $end
$var reg 4 % keypad_rows [3:0] $end
$var reg 2 & press_col_idx [1:0] $end
$var reg 2 ' press_row_idx [1:0] $end
$var reg 1 ( pressing $end
$var reg 1 ) rst_n $end
$var integer 32 * errores [31:0] $end
$scope function display_a_int $end
$upscope $end
$scope module dut $end
$var wire 1 $ clk27 $end
$var wire 4 + keypad_rows [3:0] $end
$var wire 1 ) rst_n $end
$var wire 2 , seleccion_display [1:0] $end
$var wire 7 - seg [6:0] $end
$var wire 1 . scan_tick $end
$var wire 1 / rst $end
$var wire 11 0 resultado [10:0] $end
$var wire 1 1 overflow $end
$var wire 11 2 numero_display [10:0] $end
$var wire 11 3 numero_b [10:0] $end
$var wire 11 4 numero_a [10:0] $end
$var wire 1 5 limpiar $end
$var wire 4 6 keypad_cols [3:0] $end
$var wire 1 7 key_valid $end
$var wire 4 8 key_code [3:0] $end
$var wire 4 9 dig [3:0] $end
$var wire 4 : d3 [3:0] $end
$var wire 4 ; d2 [3:0] $end
$var wire 4 < d1 [3:0] $end
$var wire 4 = d0 [3:0] $end
$var wire 1 > cargar_b $end
$var wire 1 ? cargar_a $end
$var wire 2 @ cantidad_b [1:0] $end
$var wire 2 A cantidad_a [1:0] $end
$var wire 1 B calcular $end
$var wire 1 C b_lleno $end
$var wire 1 D a_lleno $end
$scope module u_bcd $end
$var wire 11 E bin [10:0] $end
$var reg 4 F d0 [3:0] $end
$var reg 4 G d1 [3:0] $end
$var reg 4 H d2 [3:0] $end
$var reg 4 I d3 [3:0] $end
$upscope $end
$scope module u_control $end
$var wire 1 $ clk $end
$var wire 1 J es_digito $end
$var wire 1 / rst $end
$var wire 1 7 key_valid $end
$var wire 4 K key_code [3:0] $end
$var wire 1 C b_lleno $end
$var wire 1 D a_lleno $end
$var parameter 2 L INGRESO_A $end
$var parameter 2 M INGRESO_B $end
$var parameter 2 N MOSTRAR_RESULTADO $end
$var reg 1 B calcular $end
$var reg 1 ? cargar_a $end
$var reg 1 > cargar_b $end
$var reg 2 O estado [1:0] $end
$var reg 1 5 limpiar $end
$var reg 2 P seleccion_display [1:0] $end
$upscope $end
$scope module u_display $end
$var wire 1 $ clk $end
$var wire 4 Q d0 [3:0] $end
$var wire 4 R d1 [3:0] $end
$var wire 4 S d2 [3:0] $end
$var wire 4 T d3 [3:0] $end
$var wire 1 / rst $end
$var parameter 32 U CLK_FREQ $end
$var parameter 32 V COMMON_ANODE $end
$var parameter 32 W REFRESH_HZ $end
$var parameter 32 X TICKS_PER_DIGIT $end
$var reg 4 Y dig [3:0] $end
$var reg 4 Z dig_raw [3:0] $end
$var reg 4 [ digit_val [3:0] $end
$var reg 13 \ refresh_cnt [12:0] $end
$var reg 7 ] seg [6:0] $end
$var reg 7 ^ seg_raw [6:0] $end
$var reg 2 _ sel [1:0] $end
$upscope $end
$scope module u_numero_a $end
$var wire 1 ? cargar_digito $end
$var wire 1 $ clk $end
$var wire 1 ` es_digito $end
$var wire 1 5 limpiar $end
$var wire 1 / rst $end
$var wire 1 D lleno $end
$var wire 4 a digito [3:0] $end
$var parameter 32 b MAX_DIGITOS $end
$var parameter 32 c WIDTH $end
$var reg 2 d cantidad_digitos [1:0] $end
$var reg 1 e cargar_digito_r $end
$var reg 11 f digito_ext [10:0] $end
$var reg 4 g digito_r [3:0] $end
$var reg 11 h numero [10:0] $end
$var reg 11 i numero_next [10:0] $end
$var reg 11 j numero_x10 [10:0] $end
$upscope $end
$scope module u_numero_b $end
$var wire 1 > cargar_digito $end
$var wire 1 $ clk $end
$var wire 1 k es_digito $end
$var wire 1 5 limpiar $end
$var wire 1 / rst $end
$var wire 1 C lleno $end
$var wire 4 l digito [3:0] $end
$var parameter 32 m MAX_DIGITOS $end
$var parameter 32 n WIDTH $end
$var reg 2 o cantidad_digitos [1:0] $end
$var reg 1 p cargar_digito_r $end
$var reg 11 q digito_ext [10:0] $end
$var reg 4 r digito_r [3:0] $end
$var reg 11 s numero [10:0] $end
$var reg 11 t numero_next [10:0] $end
$var reg 11 u numero_x10 [10:0] $end
$upscope $end
$scope module u_reset_inicio $end
$var wire 1 $ clk $end
$var wire 1 ) rst_n $end
$var parameter 32 v CICLOS $end
$var reg 23 w contador [22:0] $end
$var reg 1 / rst $end
$upscope $end
$scope module u_selector_display $end
$var wire 11 x numero_a [10:0] $end
$var wire 11 y numero_b [10:0] $end
$var wire 2 z seleccion_display [1:0] $end
$var wire 11 { resultado [10:0] $end
$var reg 11 | numero_display [10:0] $end
$upscope $end
$scope module u_suma $end
$var wire 1 $ clk $end
$var wire 11 } dato_a [10:0] $end
$var wire 11 ~ dato_b [10:0] $end
$var wire 1 / rst $end
$var reg 1 1 overflow $end
$var reg 11 !" resultado [10:0] $end
$var reg 12 "" suma_extendida [11:0] $end
$upscope $end
$scope module u_teclado $end
$var wire 1 $ clk $end
$var wire 4 #" rows_async [3:0] $end
$var wire 1 / rst $end
$var wire 1 . scan_tick $end
$var reg 1 $" any_key_this_scan $end
$var reg 2 %" col_idx [1:0] $end
$var reg 4 &" cols [3:0] $end
$var reg 4 '" cur_key [3:0] $end
$var reg 4 (" key_code [3:0] $end
$var reg 1 7 key_valid $end
$var reg 1 )" locked $end
$var reg 1 *" phase $end
$var reg 1 +" row_found $end
$var reg 2 ," row_idx [1:0] $end
$var reg 4 -" rows_s1 [3:0] $end
$var reg 4 ." rows_s2 [3:0] $end
$upscope $end
$scope module u_tick $end
$var wire 1 $ clk $end
$var wire 1 / rst $end
$var parameter 32 /" DIV $end
$var parameter 32 0" W $end
$var reg 4 1" count [3:0] $end
$var reg 1 . tick $end
$upscope $end
$upscope $end
$scope task check $end
$upscope $end
$scope task escribir_numero $end
$upscope $end
$scope task hacer_suma $end
$upscope $end
$scope task limpiar $end
$upscope $end
$scope task presionar_digito $end
$upscope $end
$scope task presionar_igual $end
$upscope $end
$scope task presionar_suma $end
$upscope $end
$scope task presionar_tecla $end
$upscope $end
$upscope $end
$enddefinitions $end
$comment Show the parameter values. $end
$dumpall
b100 0"
b10000 /"
b110010 v
b1011 n
b11 m
b1011 c
b11 b
b1101001011110 X
b1111101000 W
b0 V
b1100110111111110011000000 U
b10 N
b1 M
b0 L
$end
#0
$dumpvars
bx 1"
bx ."
bx -"
b0 ,"
0+"
x*"
x)"
bx ("
b0 '"
b1111 &"
bx %"
x$"
b1111 #"
bx ""
b0 !"
bx ~
bx }
bx |
b0 {
b0 z
bx y
bx x
b0 w
bx u
bx t
bx s
bx r
b0xxxx q
xp
bx o
bx l
xk
bx j
bx i
bx h
bx g
b0xxxx f
xe
bx d
bx a
x`
b0 _
b111111 ^
b0 ]
b0 \
b0 [
b1 Z
b0 Y
b0 T
b0 S
b0 R
b0 Q
b0 P
bx O
bx K
xJ
b0 I
b0 H
b0 G
b0 F
bx E
xD
xC
0B
bx A
bx @
0?
0>
b0 =
b0 <
b0 ;
b0 :
b0 9
bx 8
x7
b1111 6
05
bx 4
bx 3
bx 2
01
b0 0
1/
x.
b0 -
b0 ,
b1111 +
b0 *
0)
0(
b0 '
b0 &
b1111 %
0$
b0 #
b1111 "
b0 !
$end
#18000
1`
1k
b1 '"
b1110 "
b1110 6
b1110 &"
1J
b0 i
b0 j
b0 f
b0 t
b0 u
b0 q
b0 2
b0 E
b0 |
0.
b0 1"
0*"
b0 %"
b1111 ."
b1111 -"
0$"
0)"
b0 8
b0 K
b0 a
b0 l
b0 ("
07
b0 O
b0 g
0e
0D
b0 A
b0 d
b0 4
b0 h
b0 x
b0 }
b0 r
0p
0C
b0 @
b0 o
b0 3
b0 s
b0 y
b0 ~
1$
#36000
0$
#54000
1$
#72000
0$
#90000
1$
#108000
0$
#126000
1$
#144000
0$
#162000
1$
#180000
0$
#198000
1$
#216000
0$
#234000
1$
#252000
0$
#270000
1$
#288000
0$
#306000
1$
#324000
0$
#342000
1)
1$
#360000
0$
#378000
b1 w
1$
#396000
0$
#414000
b10 w
1$
#432000
0$
#450000
b11 w
1$
#468000
0$
#486000
b100 w
1$
#504000
0$
#522000
b101 w
1$
#540000
0$
#558000
b110 w
1$
#576000
0$
#594000
b111 w
1$
#612000
0$
#630000
b1000 w
1$
#648000
0$
#666000
b1001 w
1$
#684000
0$
#702000
b1010 w
1$
#720000
0$
#738000
b1011 w
1$
#756000
0$
#774000
b1100 w
1$
#792000
0$
#810000
b1101 w
1$
#828000
0$
#846000
b1110 w
1$
#864000
0$
#882000
b1111 w
1$
#900000
0$
#918000
b10000 w
1$
#936000
0$
#954000
b10001 w
1$
#972000
0$
#990000
b10010 w
1$
#1008000
0$
#1026000
b10011 w
1$
#1044000
0$
#1062000
b10100 w
1$
#1080000
0$
#1098000
b10101 w
1$
#1116000
0$
#1134000
b10110 w
1$
#1152000
0$
#1170000
b10111 w
1$
#1188000
0$
#1206000
b11000 w
1$
#1224000
0$
#1242000
b11001 w
1$
#1260000
0$
#1278000
b11010 w
1$
#1296000
0$
#1314000
b11011 w
1$
#1332000
0$
#1350000
b11100 w
1$
#1368000
0$
#1386000
b11101 w
1$
#1404000
0$
#1422000
b11110 w
1$
#1440000
0$
#1458000
b11111 w
1$
#1476000
0$
#1494000
b100000 w
1$
#1512000
0$
#1530000
b100001 w
1$
#1548000
0$
#1566000
b100010 w
1$
#1584000
0$
#1602000
b100011 w
1$
#1620000
0$
#1638000
b100100 w
1$
#1656000
0$
#1674000
b100101 w
1$
#1692000
0$
#1710000
b100110 w
1$
#1728000
0$
#1746000
b100111 w
1$
#1764000
0$
#1782000
b101000 w
1$
#1800000
0$
#1818000
b101001 w
1$
#1836000
0$
#1854000
b101010 w
1$
#1872000
0$
#1890000
b101011 w
1$
#1908000
0$
#1926000
b101100 w
1$
#1944000
0$
#1962000
b101101 w
1$
#1980000
0$
#1998000
b101110 w
1$
#2016000
0$
#2034000
b101111 w
1$
#2052000
0$
#2070000
b110000 w
1$
#2088000
0$
#2106000
b110001 w
1$
#2124000
0$
#2142000
b110010 w
1$
#2160000
0$
#2178000
0/
1$
#2196000
0$
#2214000
b1 1"
b1 \
b1 #
b1 9
b1 Y
b111111 !
b111111 -
b111111 ]
b0 ""
1$
#2232000
0$
#2250000
b10 1"
b10 \
1$
#2268000
0$
#2286000
b11 1"
b11 \
1$
#2304000
0$
#2322000
b100 1"
b100 \
1$
#2340000
0$
#2358000
b101 1"
b101 \
1$
#2376000
0$
#2394000
b110 1"
b110 \
1$
#2412000
0$
#2430000
b111 1"
b111 \
1$
#2448000
0$
#2466000
b1000 1"
b1000 \
1$
#2484000
0$
#2502000
b1001 1"
b1001 \
1$
#2520000
0$
#2538000
b1010 1"
b1010 \
1$
#2556000
0$
#2574000
b1011 1"
b1011 \
1$
#2592000
0$
#2610000
b1100 1"
b1100 \
1$
#2628000
0$
#2646000
b1101 1"
b1101 \
1$
#2664000
0$
#2682000
b1110 1"
b1110 \
1$
#2700000
0$
#2718000
b1111 1"
b1111 \
1$
#2736000
0$
#2754000
1.
b0 1"
b10000 \
1$
#2772000
0$
#2790000
1*"
0.
b1 1"
b10001 \
1$
#2808000
0$
#2826000
b10 1"
b10010 \
1$
#2844000
0$
#2862000
b11 1"
b10011 \
1$
#2880000
0$
#2898000
b100 1"
b10100 \
1$
#2916000
0$
#2934000
b101 1"
b10101 \
1$
#2952000
0$
#2970000
b110 1"
b10110 \
1$
#2988000
0$
#3006000
b111 1"
b10111 \
1$
#3024000
0$
#3042000
b1000 1"
b11000 \
1$
#3060000
0$
#3078000
b1001 1"
b11001 \
1$
#3096000
0$
#3114000
b1010 1"
b11010 \
1$
#3132000
0$
#3150000
b1011 1"
b11011 \
1$
#3168000
0$
#3186000
b1100 1"
b11100 \
1$
#3204000
0$
#3222000
b1101 1"
b11101 \
1$
#3240000
0$
#3258000
b1110 1"
b11110 \
1$
#3276000
0$
#3294000
b1111 1"
b11111 \
1$
#3312000
0$
#3330000
1.
b0 1"
b100000 \
1$
#3348000
0$
#3366000
b10 '"
b1101 "
b1101 6
b1101 &"
b1 %"
0*"
0.
b1 1"
b100001 \
1$
#3384000
0$
#3402000
b10 1"
b100010 \
1$
#3420000
0$
#3438000
b11 1"
b100011 \
1$
#3456000
0$
#3474000
b100 1"
b100100 \
1$
#3492000
0$
#3510000
b101 1"
b100101 \
1$
#3528000
0$
#3546000
b110 1"
b100110 \
1$
#3564000
0$
#3582000
b111 1"
b100111 \
1$
#3600000
0$
#3618000
b1000 1"
b101000 \
1$
#3636000
0$
#3654000
b1001 1"
b101001 \
1$
#3672000
0$
#3690000
b1010 1"
b101010 \
1$
#3708000
0$
#3726000
b1011 1"
b101011 \
1$
#3744000
0$
#3762000
b1100 1"
b101100 \
1$
#3780000
0$
#3798000
b1101 1"
b101101 \
1$
#3816000
0$
#3834000
b1110 1"
b101110 \
1$
#3852000
0$
#3870000
b1111 1"
b101111 \
1$
#3888000
0$
#3906000
1.
b0 1"
b110000 \
1$
#3924000
0$
#3942000
1*"
0.
b1 1"
b110001 \
1$
#3960000
0$
#3978000
b10 1"
b110010 \
1$
#3996000
0$
#4014000
b11 1"
b110011 \
1$
#4032000
0$
#4050000
b100 1"
b110100 \
1$
#4068000
0$
#4086000
b101 1"
b110101 \
1$
#4104000
0$
#4122000
b110 1"
b110110 \
1$
#4140000
0$
#4158000
b111 1"
b110111 \
1$
#4176000
0$
#4194000
b1000 1"
b111000 \
1$
#4212000
0$
#4230000
b1001 1"
b111001 \
1$
#4248000
0$
#4266000
b1010 1"
b111010 \
1$
#4284000
0$
#4302000
b1011 1"
b111011 \
1$
#4320000
0$
#4338000
b1100 1"
b111100 \
1$
#4356000
0$
#4374000
b1101 1"
b111101 \
1$
#4392000
0$
#4410000
b1110 1"
b111110 \
1$
#4428000
0$
#4446000
b1111 1"
b111111 \
1$
#4464000
0$
#4482000
1.
b0 1"
b1000000 \
1$
#4500000
0$
#4518000
b11 '"
b1011 "
b1011 6
b1011 &"
b10 %"
0*"
0.
b1 1"
b1000001 \
1$
#4536000
0$
#4554000
b10 1"
b1000010 \
1$
#4572000
0$
#4590000
b11 1"
b1000011 \
1$
#4608000
0$
#4626000
b100 1"
b1000100 \
1$
#4644000
0$
#4662000
b101 1"
b1000101 \
1$
#4680000
0$
#4698000
b110 1"
b1000110 \
1$
#4716000
0$
#4734000
b111 1"
b1000111 \
1$
#4752000
0$
#4770000
b1000 1"
b1001000 \
1$
#4788000
0$
#4806000
b1001 1"
b1001001 \
1$
#4824000
0$
#4842000
b1010 1"
b1001010 \
1$
#4860000
0$
#4878000
b1011 1"
b1001011 \
1$
#4896000
0$
#4914000
b1100 1"
b1001100 \
1$
#4932000
0$
#4950000
b1101 1"
b1001101 \
1$
#4968000
0$
#4986000
b1110 1"
b1001110 \
1$
#5004000
0$
#5022000
b1111 1"
b1001111 \
1$
#5040000
0$
#5058000
1.
b0 1"
b1010000 \
1$
#5076000
0$
#5094000
1*"
0.
b1 1"
b1010001 \
1$
#5112000
0$
#5130000
b10 1"
b1010010 \
1$
#5148000
0$
#5166000
b11 1"
b1010011 \
1$
#5184000
0$
#5202000
b100 1"
b1010100 \
1$
#5220000
0$
#5238000
b101 1"
b1010101 \
1$
#5256000
0$
#5274000
b110 1"
b1010110 \
1$
#5292000
0$
#5310000
b111 1"
b1010111 \
1$
#5328000
0$
#5346000
b1000 1"
b1011000 \
1$
#5364000
0$
#5382000
b1001 1"
b1011001 \
1$
#5400000
0$
#5418000
b1010 1"
b1011010 \
1$
#5436000
0$
#5454000
b1011 1"
b1011011 \
1$
#5472000
0$
#5490000
b1100 1"
b1011100 \
1$
#5508000
0$
#5526000
b1101 1"
b1011101 \
1$
#5544000
0$
#5562000
b1110 1"
b1011110 \
1$
#5580000
0$
#5598000
b1111 1"
b1011111 \
1$
#5616000
0$
#5634000
1.
b0 1"
b1100000 \
1$
#5652000
0$
#5670000
b1010 '"
b111 "
b111 6
b111 &"
b11 %"
0*"
0.
b1 1"
b1100001 \
1$
#5688000
0$
#5706000
b10 1"
b1100010 \
1$
#5724000
0$
#5742000
b11 1"
b1100011 \
1$
#5760000
0$
#5778000
b100 1"
b1100100 \
1$
#5796000
0$
#5814000
b101 1"
b1100101 \
1$
#5832000
0$
#5850000
b110 1"
b1100110 \
1$
#5868000
0$
#5886000
b111 1"
b1100111 \
1$
#5904000
0$
#5922000
b1000 1"
b1101000 \
1$
#5940000
0$
#5958000
b1001 1"
b1101001 \
1$
#5976000
0$
#5994000
b1010 1"
b1101010 \
1$
#6012000
0$
#6030000
b1011 1"
b1101011 \
1$
#6048000
0$
#6066000
b1100 1"
b1101100 \
1$
#6084000
0$
#6102000
b1101 1"
b1101101 \
1$
#6120000
0$
#6138000
b1110 1"
b1101110 \
1$
#6156000
0$
#6174000
b1111 1"
b1101111 \
1$
#6192000
0$
#6210000
1.
b0 1"
b1110000 \
1$
#6228000
0$
#6246000
1*"
0.
b1 1"
b1110001 \
1$
#6264000
0$
#6282000
b10 1"
b1110010 \
1$
#6300000
0$
#6318000
b11 1"
b1110011 \
1$
#6336000
0$
#6354000
b100 1"
b1110100 \
1$
#6372000
0$
#6390000
b101 1"
b1110101 \
1$
#6408000
0$
#6426000
b110 1"
b1110110 \
1$
#6444000
0$
#6462000
b111 1"
b1110111 \
1$
#6480000
0$
#6498000
b1000 1"
b1111000 \
1$
#6516000
0$
#6534000
b1001 1"
b1111001 \
1$
#6552000
0$
#6570000
b1010 1"
b1111010 \
1$
#6588000
0$
#6606000
b1011 1"
b1111011 \
1$
#6624000
0$
#6642000
b1100 1"
b1111100 \
1$
#6660000
0$
#6678000
b1101 1"
b1111101 \
1$
#6696000
0$
#6714000
b1110 1"
b1111110 \
1$
#6732000
0$
#6750000
b1111 1"
b1111111 \
1$
#6768000
0$
#6786000
1.
b0 1"
b10000000 \
1$
#6804000
0$
#6822000
b1 '"
b1110 "
b1110 6
b1110 &"
b0 %"
0*"
0.
b1 1"
b10000001 \
1$
#6840000
0$
#6858000
b10 1"
b10000010 \
1$
#6876000
0$
#6894000
b11 1"
b10000011 \
1$
#6912000
0$
#6930000
b100 1"
b10000100 \
1$
#6948000
0$
#6966000
b101 1"
b10000101 \
1$
#6984000
0$
#7002000
b110 1"
b10000110 \
1$
#7020000
0$
#7038000
b111 1"
b10000111 \
1$
#7056000
0$
#7074000
b1000 1"
b10001000 \
1$
#7092000
0$
#7110000
b1001 1"
b10001001 \
1$
#7128000
0$
#7146000
b1010 1"
b10001010 \
1$
#7164000
0$
#7182000
b1011 1"
b10001011 \
1$
#7200000
0$
#7218000
b1100 1"
b10001100 \
1$
#7236000
0$
#7254000
b1101 1"
b10001101 \
1$
#7272000
0$
#7290000
b1110 1"
b10001110 \
1$
#7308000
0$
#7326000
b1111 1"
b10001111 \
1$
#7344000
0$
#7362000
1.
b0 1"
b10010000 \
1$
#7380000
0$
#7398000
1*"
0.
b1 1"
b10010001 \
1$
#7416000
0$
#7434000
b10 1"
b10010010 \
1$
#7452000
0$
#7470000
b11 1"
b10010011 \
1$
#7488000
0$
#7506000
b100 1"
b10010100 \
1$
#7524000
0$
#7542000
b101 1"
b10010101 \
1$
#7560000
0$
#7578000
b110 1"
b10010110 \
1$
#7596000
0$
#7614000
b111 1"
b10010111 \
1$
#7632000
0$
#7650000
b1000 1"
b10011000 \
1$
#7668000
0$
#7686000
b1001 1"
b10011001 \
1$
#7704000
0$
#7722000
b1010 1"
b10011010 \
1$
#7740000
0$
#7758000
b1011 1"
b10011011 \
1$
#7776000
0$
#7794000
b1100 1"
b10011100 \
1$
#7812000
0$
#7830000
b1101 1"
b10011101 \
1$
#7848000
0$
#7866000
b1110 1"
b10011110 \
1$
#7884000
0$
#7902000
b1111 1"
b10011111 \
1$
#7920000
0$
#7938000
1.
b0 1"
b10100000 \
1$
#7956000
0$
#7974000
b10 '"
b1101 "
b1101 6
b1101 &"
b1 %"
0*"
0.
b1 1"
b10100001 \
1$
#7992000
0$
#8010000
b10 1"
b10100010 \
1$
#8028000
0$
#8046000
b11 1"
b10100011 \
1$
#8064000
0$
#8082000
b100 1"
b10100100 \
1$
#8100000
0$
#8118000
b101 1"
b10100101 \
1$
#8136000
0$
#8154000
b110 1"
b10100110 \
1$
#8172000
0$
#8190000
b111 1"
b10100111 \
1$
#8208000
0$
#8226000
b1000 1"
b10101000 \
1$
#8244000
0$
#8262000
b1001 1"
b10101001 \
1$
#8280000
0$
#8298000
b1010 1"
b10101010 \
1$
#8316000
0$
#8334000
b1011 1"
b10101011 \
1$
#8352000
0$
#8370000
b1100 1"
b10101100 \
1$
#8388000
0$
#8406000
b1101 1"
b10101101 \
1$
#8424000
0$
#8442000
b1110 1"
b10101110 \
1$
#8460000
0$
#8478000
b1111 1"
b10101111 \
1$
#8496000
0$
#8514000
1.
b0 1"
b10110000 \
1$
#8532000
0$
#8550000
1*"
0.
b1 1"
b10110001 \
1$
#8568000
0$
#8586000
b10 1"
b10110010 \
1$
#8604000
0$
#8622000
b11 1"
b10110011 \
1(
1$
#8640000
0$
#8658000
b100 1"
b10110100 \
1$
#8676000
0$
#8694000
b101 1"
b10110101 \
1$
#8712000
0$
#8730000
b110 1"
b10110110 \
1$
#8748000
0$
#8766000
b111 1"
b10110111 \
1$
#8784000
0$
#8802000
b1000 1"
b10111000 \
1$
#8820000
0$
#8838000
b1001 1"
b10111001 \
1$
#8856000
0$
#8874000
b1010 1"
b10111010 \
1$
#8892000
0$
#8910000
b1011 1"
b10111011 \
1$
#8928000
0$
#8946000
b1100 1"
b10111100 \
1$
#8964000
0$
#8982000
b1101 1"
b10111101 \
1$
#9000000
0$
#9018000
b1110 1"
b10111110 \
1$
#9036000
0$
#9054000
b1111 1"
b10111111 \
1$
#9072000
0$
#9090000
1.
b0 1"
b11000000 \
1$
#9108000
0$
#9126000
b11 '"
b1011 "
b1011 6
b1011 &"
b10 %"
0*"
0.
b1 1"
b11000001 \
1$
#9144000
0$
#9162000
b10 1"
b11000010 \
1$
#9180000
0$
#9198000
b11 1"
b11000011 \
1$
#9216000
0$
#9234000
b100 1"
b11000100 \
1$
#9252000
0$
#9270000
b101 1"
b11000101 \
1$
#9288000
0$
#9306000
b110 1"
b11000110 \
1$
#9324000
0$
#9342000
b111 1"
b11000111 \
1$
#9360000
0$
#9378000
b1000 1"
b11001000 \
1$
#9396000
0$
#9414000
b1001 1"
b11001001 \
1$
#9432000
0$
#9450000
b1010 1"
b11001010 \
1$
#9468000
0$
#9486000
b1011 1"
b11001011 \
1$
#9504000
0$
#9522000
b1100 1"
b11001100 \
1$
#9540000
0$
#9558000
b1101 1"
b11001101 \
1$
#9576000
0$
#9594000
b1110 1"
b11001110 \
1$
#9612000
0$
#9630000
b1111 1"
b11001111 \
1$
#9648000
0$
#9666000
1.
b0 1"
b11010000 \
1$
#9684000
0$
#9702000
1*"
0.
b1 1"
b11010001 \
1$
#9720000
0$
#9738000
b10 1"
b11010010 \
1$
#9756000
0$
#9774000
b11 1"
b11010011 \
1$
#9792000
0$
#9810000
b100 1"
b11010100 \
1$
#9828000
0$
#9846000
b101 1"
b11010101 \
1$
#9864000
0$
#9882000
b110 1"
b11010110 \
1$
#9900000
0$
#9918000
b111 1"
b11010111 \
1$
#9936000
0$
#9954000
b1000 1"
b11011000 \
1$
#9972000
0$
#9990000
b1001 1"
b11011001 \
1$
#10008000
0$
#10026000
b1010 1"
b11011010 \
1$
#10044000
0$
#10062000
b1011 1"
b11011011 \
1$
#10080000
0$
#10098000
b1100 1"
b11011100 \
1$
#10116000
0$
#10134000
b1101 1"
b11011101 \
1$
#10152000
0$
#10170000
b1110 1"
b11011110 \
1$
#10188000
0$
#10206000
b1111 1"
b11011111 \
1$
#10224000
0$
#10242000
1.
b0 1"
b11100000 \
1$
#10260000
0$
#10278000
b1010 '"
b111 "
b111 6
b111 &"
b11 %"
0*"
0.
b1 1"
b11100001 \
1$
#10296000
0$
#10314000
b10 1"
b11100010 \
1$
#10332000
0$
#10350000
b11 1"
b11100011 \
1$
#10368000
0$
#10386000
b100 1"
b11100100 \
1$
#10404000
0$
#10422000
b101 1"
b11100101 \
1$
#10440000
0$
#10458000
b110 1"
b11100110 \
1$
#10476000
0$
#10494000
b111 1"
b11100111 \
1$
#10512000
0$
#10530000
b1000 1"
b11101000 \
1$
#10548000
0$
#10566000
b1001 1"
b11101001 \
1$
#10584000
0$
#10602000
b1010 1"
b11101010 \
1$
#10620000
0$
#10638000
b1011 1"
b11101011 \
1$
#10656000
0$
#10674000
b1100 1"
b11101100 \
1$
#10692000
0$
#10710000
b1101 1"
b11101101 \
1$
#10728000
0$
#10746000
b1110 1"
b11101110 \
1$
#10764000
0$
#10782000
b1111 1"
b11101111 \
1$
#10800000
0$
#10818000
1.
b0 1"
b11110000 \
1$
#10836000
0$
#10854000
1*"
0.
b1 1"
b11110001 \
1$
#10872000
0$
#10890000
b10 1"
b11110010 \
1$
#10908000
0$
#10926000
b11 1"
b11110011 \
1$
#10944000
0$
#10962000
b100 1"
b11110100 \
1$
#10980000
0$
#10998000
b101 1"
b11110101 \
1$
#11016000
0$
#11034000
b110 1"
b11110110 \
1$
#11052000
0$
#11070000
b111 1"
b11110111 \
1$
#11088000
0$
#11106000
b1000 1"
b11111000 \
1$
#11124000
0$
#11142000
b1001 1"
b11111001 \
1$
#11160000
0$
#11178000
b1010 1"
b11111010 \
1$
#11196000
0$
#11214000
b1011 1"
b11111011 \
1$
#11232000
0$
#11250000
b1100 1"
b11111100 \
1$
#11268000
0$
#11286000
b1101 1"
b11111101 \
1$
#11304000
0$
#11322000
b1110 1"
b11111110 \
1$
#11340000
0$
#11358000
b1111 1"
b11111111 \
1$
#11376000
0$
#11394000
1.
b0 1"
b100000000 \
1$
#11412000
0$
#11430000
b1110 %
b1110 +
b1110 #"
b1 '"
b1110 "
b1110 6
b1110 &"
b0 %"
0*"
0.
b1 1"
b100000001 \
1$
#11448000
0$
#11466000
b10 1"
b1110 -"
b100000010 \
1$
#11484000
0$
#11502000
1+"
b1110 ."
b11 1"
b100000011 \
1$
#11520000
0$
#11538000
b100 1"
b100000100 \
1$
#11556000
0$
#11574000
b101 1"
b100000101 \
1$
#11592000
0$
#11610000
b110 1"
b100000110 \
1$
#11628000
0$
#11646000
b111 1"
b100000111 \
1$
#11664000
0$
#11682000
b1000 1"
b100001000 \
1$
#11700000
0$
#11718000
b1001 1"
b100001001 \
1$
#11736000
0$
#11754000
b1010 1"
b100001010 \
1$
#11772000
0$
#11790000
b1011 1"
b100001011 \
1$
#11808000
0$
#11826000
b1100 1"
b100001100 \
1$
#11844000
0$
#11862000
b1101 1"
b100001101 \
1$
#11880000
0$
#11898000
b1110 1"
b100001110 \
1$
#11916000
0$
#11934000
b1111 1"
b100001111 \
1$
#11952000
0$
#11970000
1.
b0 1"
b100010000 \
1$
#11988000
0$
#12006000
1*"
0.
b1 1"
b100010001 \
1$
#12024000
0$
#12042000
b10 1"
b100010010 \
1$
#12060000
0$
#12078000
b11 1"
b100010011 \
1$
#12096000
0$
#12114000
b100 1"
b100010100 \
1$
#12132000
0$
#12150000
b101 1"
b100010101 \
1$
#12168000
0$
#12186000
b110 1"
b100010110 \
1$
#12204000
0$
#12222000
b111 1"
b100010111 \
1$
#12240000
0$
#12258000
b1000 1"
b100011000 \
1$
#12276000
0$
#12294000
b1001 1"
b100011001 \
1$
#12312000
0$
#12330000
b1010 1"
b100011010 \
1$
#12348000
0$
#12366000
b1011 1"
b100011011 \
1$
#12384000
0$
#12402000
b1100 1"
b100011100 \
1$
#12420000
0$
#12438000
b1101 1"
b100011101 \
1$
#12456000
0$
#12474000
b1110 1"
b100011110 \
1$
#12492000
0$
#12510000
b1111 1"
b100011111 \
1$
#12528000
0$
#12546000
1.
b0 1"
b100100000 \
1$
#12564000
0$
#12582000
b1111 %
b1111 +
b1111 #"
1?
b10 '"
b1101 "
b1101 6
b1101 &"
1)"
17
b1 8
b1 K
b1 a
b1 l
b1 ("
1$"
b1 %"
0*"
0.
b1 1"
b100100001 \
1$
#12600000
0$
#12618000
0?
b1 i
b1 f
b1 q
b10 1"
b1111 -"
07
b1 g
1e
b1 r
b100100010 \
1$
#12636000
0$
#12654000
b110 ^
b1 [
b1 =
b1 F
b1 Q
b1 2
b1 E
b1 |
b1010 j
0+"
b1 A
b1 d
b1 4
b1 h
b1 x
b1 }
0e
b1111 ."
b11 1"
b100100011 \
1$
#12672000
0$
#12690000
b100 1"
b110 !
b110 -
b110 ]
b100100100 \
b1 0
b1 {
b1 !"
b1 ""
1$
#12708000
0$
#12726000
b101 1"
b100100101 \
1$
#12744000
0$
#12762000
b110 1"
b100100110 \
1$
#12780000
0$
#12798000
b111 1"
b100100111 \
1$
#12816000
0$
#12834000
b1000 1"
b100101000 \
1$
#12852000
0$
#12870000
b1001 1"
b100101001 \
1$
#12888000
0$
#12906000
b1010 1"
b100101010 \
1$
#12924000
0$
#12942000
b1011 1"
b100101011 \
1$
#12960000
0$
#12978000
b1100 1"
b100101100 \
1$
#12996000
0$
#13014000
b1101 1"
b100101101 \
1$
#13032000
0$
#13050000
b1110 1"
b100101110 \
1$
#13068000
0$
#13086000
b1111 1"
b100101111 \
1$
#13104000
0$
#13122000
1.
b0 1"
b100110000 \
1$
#13140000
0$
#13158000
1*"
0.
b1 1"
b100110001 \
1$
#13176000
0$
#13194000
b10 1"
b100110010 \
1$
#13212000
0$
#13230000
b11 1"
b100110011 \
1$
#13248000
0$
#13266000
b100 1"
b100110100 \
1$
#13284000
0$
